<?xml version="1.0" encoding="UTF-8" standalone="no"?>
<!-- Generated by IcoMoon.io -->

<svg
   xmlns:dc="http://purl.org/dc/elements/1.1/"
   xmlns:cc="http://creativecommons.org/ns#"
   xmlns:rdf="http://www.w3.org/1999/02/22-rdf-syntax-ns#"
   xmlns:svg="http://www.w3.org/2000/svg"
   xmlns="http://www.w3.org/2000/svg"
   xmlns:sodipodi="http://sodipodi.sourceforge.net/DTD/sodipodi-0.dtd"
   xmlns:inkscape="http://www.inkscape.org/namespaces/inkscape"
   version="1.1"
   width="478"
   height="448"
   viewBox="0 0 478 448"
   id="svg7">
  <metadata
     id="metadata13">
    <rdf:RDF>
      <cc:Work
         rdf:about="">
        <dc:format>image/svg+xml</dc:format>
        <dc:type
           rdf:resource="http://purl.org/dc/dcmitype/StillImage" />
        <dc:title></dc:title>
      </cc:Work>
    </rdf:RDF>
  </metadata>
  <defs
     id="defs11">
    <inkscape:path-effect
       effect="spiro"
       id="path-effect826"
       is_visible="true" />
    <inkscape:path-effect
       effect="spiro"
       id="path-effect822"
       is_visible="true" />
  </defs>
  <sodipodi:namedview
     pagecolor="#ffffff"
     bordercolor="#666666"
     borderopacity="1"
     objecttolerance="10"
     gridtolerance="10"
     guidetolerance="10"
     inkscape:pageopacity="0"
     inkscape:pageshadow="2"
     inkscape:window-width="1280"
     inkscape:window-height="782"
     id="namedview9"
     showgrid="false"
     inkscape:snap-bbox="true"
     inkscape:snap-page="true"
     inkscape:zoom="0.12022879"
     inkscape:cx="-1289.7327"
     inkscape:cy="812.93246"
     inkscape:window-x="0"
     inkscape:window-y="18"
     inkscape:window-maximized="0"
     inkscape:current-layer="svg7"
     inkscape:snap-global="true" />
  <path
     id="path3975-1"
     sodipodi:nodetypes="cssssscccsscscccssccssccsscsssccssscssssssscccscssssccssscccssssccsccscssssssssscscccssccc"
     d="m 346.31101,448 1.12224,-2.32918 c 2.14394,-4.4497 4.40126,-12.54623 5.58258,-20.68351 0.77025,-5.30567 0.63263,-7.07861 -0.7763,-9.99742 -1.07519,-2.22742 -4.69277,-5.54303 -8.73398,-8.00416 -12.0677,-7.35076 -21.77532,-14.75339 -32.34164,-24.66312 -2.83781,-2.66137 -3.98742,-3.48365 -6.83961,-4.89269 -5.2606,-2.59853 -8.65752,-5.46709 -12.41364,-10.48237 -0.61664,-0.82346 -0.76325,-0.865 -1.99665,-0.56607 -0.73208,0.17746 -3.05323,0.34653 -5.15799,0.37572 -8.3335,0.11549 -16.23605,-3.274 -22.32123,-9.57395 -6.79309,-7.03317 -9.96374,-15.05816 -9.95358,-25.19192 0.007,-7.15614 1.50833,-12.68151 5.07255,-18.67098 4.08954,-6.87223 11.64744,-12.7847 18.66563,-14.60208 1.07016,-0.27712 2.0189,-0.57702 2.10835,-0.66647 0.0894,-0.0894 -0.0219,-1.30596 -0.24729,-2.70339 -0.59954,-3.71677 -0.23643,-9.26973 0.84934,-12.98735 2.98661,-10.22519 10.61337,-17.80319 20.63485,-20.50171 4.85601,-1.30767 12.52538,-0.91965 17.18832,0.86965 0.39079,0.14992 0.69631,-0.30562 1.27323,-1.89875 2.64061,-7.29195 7.98863,-14.32244 14.08076,-18.50897 15.16188,-10.42035 34.44239,-8.44418 47.35007,4.8537 l 2.35553,2.42675 2.13695,-0.52169 c 1.17528,-0.2869 3.85904,-0.60616 5.9638,-0.70935 6.87437,-0.33712 13.45573,1.63996 19.26929,5.78843 l 2.16866,1.54752 5.33732,0.0497 c 4.24567,0.0396 5.85419,0.19056 7.86405,0.73807 12.37621,3.37126 21.41976,13.82358 23.81459,27.52526 0.5758,3.29448 0.46603,9.1676 -0.23396,12.51843 l -0.38955,1.86437 2.28233,3.00693 c 8.54844,11.26247 10.85237,25.90839 6.24291,39.68652 -3.34308,9.99261 -10.62781,18.47315 -19.72269,22.96124 -4.31973,2.13161 -9.82312,3.64373 -13.30281,3.65507 -1.61179,0.005 -1.93698,0.14131 -3.49418,1.46245 -2.9588,2.51026 -8.75429,5.8157 -12.03294,6.8626 -0.73214,0.23381 -1.70552,0.67845 -2.16304,0.98809 -0.45758,0.30963 -3.45253,2.03787 -6.65568,3.84038 -7.89828,4.44489 -15.96016,9.62849 -20.71613,13.31991 -5.64193,4.37886 -7.15507,9.6039 -6.26002,21.61815 1.12625,15.12285 3.42669,25.20865 6.94548,30.44888 L 380.09594,448 Z m 4.74848,-41.95883 c -0.0465,-0.42743 -1.33809,-2.52342 -2.87021,-4.65775 -3.35489,-4.67357 -8.38109,-12.30135 -9.51086,-14.43418 -0.67776,-1.27917 -1.02151,-1.58153 -1.99671,-1.75642 -3.08691,-0.55356 -7.61489,-2.25918 -11.72871,-4.41784 -0.76908,-0.40352 2.4106,8.55219 3.84065,10.81762 2.06643,3.27341 11.7747,10.58182 19.16823,14.42991 2.20165,1.14592 3.22117,1.15196 3.09798,0.0187 z m 2.62276,-8.25865 c 0.35021,-0.42336 0.45667,-1.9681 0.45667,-6.62788 0,-3.34163 -0.0751,-6.15094 -0.16682,-6.24237 -0.0917,-0.0918 -0.98098,0.0444 -1.97612,0.30247 -0.99509,0.25809 -2.97656,0.56665 -4.40329,0.68562 -3.00527,0.25065 -2.93261,0 -1.2689,4.36089 1.16094,3.04237 2.69093,5.43608 4.42093,6.91714 1.49374,1.27863 2.25084,1.43433 2.93753,0.60434 z m 21.22246,-6.41935 c 1.66403,-0.84891 4.83708,-3.99389 6.78828,-6.72786 1.69339,-2.37307 3.69442,-6.36535 3.49317,-6.96901 -0.0693,-0.20793 -1.39279,-0.74245 -2.941,-1.18773 -1.54827,-0.44523 -4.06859,-1.48571 -5.60076,-2.31211 l -2.78584,-1.50256 -0.92424,0.88554 c -0.91323,0.87489 -0.92671,0.94804 -1.12475,6.09641 -0.1102,2.86614 -0.26713,6.43646 -0.34861,7.93409 -0.1287,2.3644 -0.0597,2.83556 0.52371,3.57732 0.80608,1.02477 1.2526,1.05621 2.92026,0.20537 z m -50.21809,-2.42931 c -0.9313,-2.0066 -2.66029,-7.49192 -2.66029,-8.43991 0,-0.36844 -0.80859,-0.46196 -3.9933,-0.46196 -2.1963,0 -3.9933,0.0931 -3.9933,0.20708 0,0.66247 10.77003,10.77431 11.47581,10.77431 0.075,0 -0.29814,-0.93595 -0.82902,-2.07985 z m 63.70162,-4.04661 c 2.33323,-1.56458 8.27415,-6.21457 8.11108,-6.34824 -0.0537,-0.0438 -1.78465,-0.165 -3.84664,-0.26895 l -3.74896,-0.1889 -1.68696,2.49995 c -1.82197,2.70002 -3.0142,5.08623 -2.75263,5.50932 0.38555,0.62387 1.88538,0.16399 3.92432,-1.20329 z"
     style="fill:#2fe96f;stroke-width:0.53467864;fill-opacity:1"
     inkscape:connector-curvature="0" />
</svg>
